{
  "data": [
    {
      "category": "3.10",
      "date": "2024-09",
      "downloads": 218
    },
    {
      "category": "3.10",
      "date": "2024-10",
      "downloads": 241
    },
    {
      "category": "3.10",
      "date": "2024-11",
      "downloads": 240
    },
    {
      "category": "3.10",
      "date": "2024-12",
      "downloads": 254
    },
    {
      "category": "3.10",
      "date": "2025-01",
      "downloads": 248
    },
    {
      "category": "3.10",
      "date": "2025-02",
      "downloads": 219
    },
    {
      "category": "3.10",
      "date": "2025-03",
      "downloads": 56
    },
    {
      "category": "3.11",
      "date": "2024-09",
      "downloads": 216
    },
    {
      "category": "3.11",
      "date": "2024-10",
      "downloads": 242
    },
    {
      "category": "3.11",
      "date": "2024-11",
      "downloads": 240
    },
    {
      "category": "3.11",
      "date": "2024-12",
      "downloads": 253
    },
    {
      "category": "3.11",
      "date": "2025-01",
      "downloads": 250
    },
    {
      "category": "3.11",
      "date": "2025-02",
      "downloads": 216
    },
    {
      "category": "3.11",
      "date": "2025-03",
      "downloads": 56
    },
    {
      "category": "3.12",
      "date": "2024-09",
      "downloads": 216
    },
    {
      "category": "3.12",
      "date": "2024-10",
      "downloads": 238
    },
    {
      "category": "3.12",
      "date": "2024-11",
      "downloads": 240
    },
    {
      "category": "3.12",
      "date": "2024-12",
      "downloads": 250
    },
    {
      "category": "3.12",
      "date": "2025-01",
      "downloads": 250
    },
    {
      "category": "3.12",
      "date": "2025-02",
      "downloads": 216
    },
    {
      "category": "3.12",
      "date": "2025-03",
      "downloads": 56
    },
    {
      "category": "3.13",
      "date": "2025-01",
      "downloads": 2
    },
    {
      "category": "3.8",
      "date": "2024-09",
      "downloads": 216
    },
    {
      "category": "3.8",
      "date": "2024-10",
      "downloads": 248
    },
    {
      "category": "3.8",
      "date": "2024-11",
      "downloads": 240
    },
    {
      "category": "3.8",
      "date": "2024-12",
      "downloads": 252
    },
    {
      "category": "3.8",
      "date": "2025-01",
      "downloads": 248
    },
    {
      "category": "3.8",
      "date": "2025-02",
      "downloads": 216
    },
    {
      "category": "3.8",
      "date": "2025-03",
      "downloads": 56
    },
    {
      "category": "3.9",
      "date": "2024-10",
      "downloads": 1
    },
    {
      "category": "3.9",
      "date": "2025-03",
      "downloads": 2
    },
    {
      "category": "null",
      "date": "2024-09",
      "downloads": 31
    },
    {
      "category": "null",
      "date": "2024-10",
      "downloads": 409
    },
    {
      "category": "null",
      "date": "2024-11",
      "downloads": 111
    },
    {
      "category": "null",
      "date": "2024-12",
      "downloads": 63
    },
    {
      "category": "null",
      "date": "2025-01",
      "downloads": 70
    },
    {
      "category": "null",
      "date": "2025-02",
      "downloads": 53
    },
    {
      "category": "null",
      "date": "2025-03",
      "downloads": 18
    }
  ],
  "package": "ansaittua",
  "type": "python_minor_downloads"
}
