{
  "info": {
    "author": "Stefan Hagen",
    "author_email": "stefan@hagen.link",
    "bugtrack_url": null,
    "classifiers": [
      "Development Status :: 5 - Production/Stable",
      "Intended Audience :: Developers",
      "License :: OSI Approved :: MIT License",
      "Programming Language :: Python :: 3.10",
      "Programming Language :: Python :: 3.8",
      "Programming Language :: Python :: 3.9"
    ],
    "description": "# ansaittua\n\nEarned Value Management (Finnish: ansaittua arvonhallintaa) when coding swiftly.\n\n[License: MIT](https://git.sr.ht/~sthagen/ansaittua/tree/default/item/LICENSE)\n\n[![version](https://img.shields.io/pypi/v/ansaittua.svg?style=flat)](https://pypi.python.org/pypi/ansaittua/)\n[![downloads](https://img.shields.io/pypi/dm/ansaittua.svg?style=flat)](https://pypi.python.org/pypi/ansaittua/)\n[![wheel](https://img.shields.io/pypi/wheel/ansaittua.svg?style=flat)](https://pypi.python.org/pypi/ansaittua/)\n[![supported-versions](https://img.shields.io/pypi/pyversions/ansaittua.svg?style=flat)](https://pypi.python.org/pypi/ansaittua/)\n[![supported-implementations](https://img.shields.io/pypi/implementation/ansaittua.svg?style=flat)](https://pypi.python.org/pypi/ansaittua/)\n\n## Documentation\n\nUser and developer [documentation of ansaittua](https://codes.dilettant.life/docs/ansaittua).\n\n## Bug Tracker\n\nFeature requests and bug reports are bested entered in the [todos of ansaittua](https://todo.sr.ht/~sthagen/ansaittua).\n\n## Primary Source repository\n\nThe primary source repository of [ansaittua is at sourcehut](https://git.sr.ht/~sthagen/ansaittua)\na collection of tools useful for software development.\n\n## Status\n\nExperimental.\n\n**Note**: The default branch is `default`.\n\n",
    "description_content_type": "text/markdown",
    "docs_url": null,
    "download_url": "",
    "downloads": {
      "last_day": -1,
      "last_month": -1,
      "last_week": -1
    },
    "dynamic": null,
    "home_page": "https://git.sr.ht/~sthagen/ansaittua",
    "keywords": "code-generation,developer-tools,validation,verification",
    "license": "",
    "license_expression": null,
    "license_files": null,
    "maintainer": "Stefan Hagen",
    "maintainer_email": "stefan@hagen.link",
    "name": "ansaittua",
    "package_url": "https://pypi.org/project/ansaittua/",
    "platform": null,
    "project_url": "https://pypi.org/project/ansaittua/",
    "project_urls": {
      "Bug Tracker": "https://todo.sr.ht/~sthagen/ansaittua",
      "Documentation": "https://codes.dilettant.life/docs/ansaittua",
      "Homepage": "https://git.sr.ht/~sthagen/ansaittua",
      "Source Code": "https://git.sr.ht/~sthagen/ansaittua",
      "Test Coverage": "https://codes.dilettant.life/coverage/ansaittua"
    },
    "provides_extra": null,
    "release_url": "https://pypi.org/project/ansaittua/2022.7.30/",
    "requires_dist": [
      "atlassian-python-api (>=3.25.0)",
      "cogapp (>=3.3.0)",
      "jmespath (>=1.0.1)",
      "pydantic (>=1.9.1)",
      "requests-cache (>=0.9.5)",
      "scooby (>=0.6.0)",
      "typer (>=0.6.1)"
    ],
    "requires_python": ">=3.8",
    "summary": "Earned Value Management (Finnish: ansaittua arvonhallintaa) when coding swiftly.",
    "version": "2022.7.30",
    "yanked": false,
    "yanked_reason": null
  },
  "last_serial": 14598958,
  "releases": {
    "2022.7.30": [
      {
        "comment_text": "",
        "digests": {
          "blake2b_256": "16762670273ab4439fc9496636d4ee61e89aad24b2403bd14034a5fc6d2d5590",
          "md5": "31f964180783e45d42c2aef3d172d976",
          "sha256": "9380d0eddbf0011294fba4ca8143fcefd33e7d308a1958fc3830e819cef87b45"
        },
        "downloads": -1,
        "filename": "ansaittua-2022.7.30-py2.py3-none-any.whl",
        "has_sig": false,
        "md5_digest": "31f964180783e45d42c2aef3d172d976",
        "packagetype": "bdist_wheel",
        "python_version": "py2.py3",
        "requires_python": ">=3.8",
        "size": 4689,
        "upload_time": "2022-07-30T14:18:56",
        "upload_time_iso_8601": "2022-07-30T14:18:56.294493Z",
        "url": "https://files.pythonhosted.org/packages/16/76/2670273ab4439fc9496636d4ee61e89aad24b2403bd14034a5fc6d2d5590/ansaittua-2022.7.30-py2.py3-none-any.whl",
        "yanked": false,
        "yanked_reason": null
      },
      {
        "comment_text": "",
        "digests": {
          "blake2b_256": "801901ab851680fd1473fa1e054299ba22dd537593e0980a497a4fdb22020c6e",
          "md5": "cd80790977024d49636ab7575df9574a",
          "sha256": "ba2f5a596be43bbaaef8338d6b6b76a6eada546410b4da280703a50874dc8b1c"
        },
        "downloads": -1,
        "filename": "ansaittua-2022.7.30.tar.gz",
        "has_sig": false,
        "md5_digest": "cd80790977024d49636ab7575df9574a",
        "packagetype": "sdist",
        "python_version": "source",
        "requires_python": ">=3.8",
        "size": 38020,
        "upload_time": "2022-07-30T14:18:58",
        "upload_time_iso_8601": "2022-07-30T14:18:58.042496Z",
        "url": "https://files.pythonhosted.org/packages/80/19/01ab851680fd1473fa1e054299ba22dd537593e0980a497a4fdb22020c6e/ansaittua-2022.7.30.tar.gz",
        "yanked": false,
        "yanked_reason": null
      }
    ]
  },
  "urls": [
    {
      "comment_text": "",
      "digests": {
        "blake2b_256": "16762670273ab4439fc9496636d4ee61e89aad24b2403bd14034a5fc6d2d5590",
        "md5": "31f964180783e45d42c2aef3d172d976",
        "sha256": "9380d0eddbf0011294fba4ca8143fcefd33e7d308a1958fc3830e819cef87b45"
      },
      "downloads": -1,
      "filename": "ansaittua-2022.7.30-py2.py3-none-any.whl",
      "has_sig": false,
      "md5_digest": "31f964180783e45d42c2aef3d172d976",
      "packagetype": "bdist_wheel",
      "python_version": "py2.py3",
      "requires_python": ">=3.8",
      "size": 4689,
      "upload_time": "2022-07-30T14:18:56",
      "upload_time_iso_8601": "2022-07-30T14:18:56.294493Z",
      "url": "https://files.pythonhosted.org/packages/16/76/2670273ab4439fc9496636d4ee61e89aad24b2403bd14034a5fc6d2d5590/ansaittua-2022.7.30-py2.py3-none-any.whl",
      "yanked": false,
      "yanked_reason": null
    },
    {
      "comment_text": "",
      "digests": {
        "blake2b_256": "801901ab851680fd1473fa1e054299ba22dd537593e0980a497a4fdb22020c6e",
        "md5": "cd80790977024d49636ab7575df9574a",
        "sha256": "ba2f5a596be43bbaaef8338d6b6b76a6eada546410b4da280703a50874dc8b1c"
      },
      "downloads": -1,
      "filename": "ansaittua-2022.7.30.tar.gz",
      "has_sig": false,
      "md5_digest": "cd80790977024d49636ab7575df9574a",
      "packagetype": "sdist",
      "python_version": "source",
      "requires_python": ">=3.8",
      "size": 38020,
      "upload_time": "2022-07-30T14:18:58",
      "upload_time_iso_8601": "2022-07-30T14:18:58.042496Z",
      "url": "https://files.pythonhosted.org/packages/80/19/01ab851680fd1473fa1e054299ba22dd537593e0980a497a4fdb22020c6e/ansaittua-2022.7.30.tar.gz",
      "yanked": false,
      "yanked_reason": null
    }
  ],
  "vulnerabilities": []
}